{
  "1": {
    "2": {
      "subject": "физ-ра",
      "time": "9.45-11.20",
      "room": ""
    },
    "3": [
      {
        "subject": "физ-ра",
        "time": "11.50-13.25",
        "room": ""
      },
      {
        "subject": "информационные системы в экономике",
        "time": "11.50-13.25",
        "room": "334"
      }
    ]
  },
  "2": {
    "3": [
      {
        "subject": "лаб. инструментальные средства информационных систем / интеллектуальные системы и технологии",
        "time": "11.50-13.25",
        "room": "336а / 339"
      },
      {
        "subject": "интеллектуальные системы и технологии /интеллектуальные системы и технологии ",
        "time": "11.50-13.25",
        "room": "336а / 339"
      }
    ],
    "4": {
      "subject": "интеллектуальные системы и технологии (лекция)",
      "time": "13.35-15.10",
      "room": "202"
    },
    "5": [
      {},
      {
        "subject": "инфокомуникационные системы и сети(пр.) / математическое моделирование в научных иследованиях(пр.)",
        "time": "15.10-16.55",
        "room": "336 / 337"
      }
    ]
  },
  "3": {
    "2": {
      "subject": "надежность информационных систем(лекция)",
      "time": "9.45-11.20",
      "room": "402"
    },
    "3": [
      {
        "subject": "инструментальные средства информационных систем(пр.) / надежность информационных систем(пр.)",
        "time": "11.50-13.25",
        "room": "332 /323"
      },
      {
        "subject": "надежность информационных систем(пр.) / инструментальные средства информационных систем(пр.)",
        "time": "11.50-13.25",
        "room": "323 / 332"
      }
    ]
  },
  "4": {
    "2": {
      "subject": "иностранный язык",
      "time": "9.45-11.20",
      "room": "4и"
    },
    "3": [
      {
        "subject": "интеллектуальные системы и технологии(пр.) / информационные системы в экономике (пр.)",
        "time": "11.50-13.25",
        "room": "337 / 134"
      },
      {
        "subject": "информационные системы в экономике (пр.) / интеллектуальные системы и технологии(пр.)",
        "time": "11.50-13.25",
        "room": "339 / 337"
      }
    ],
    "4": [
      {
        "subject": "инфокомуникационные системы и сети(пр.) / пары нет",
        "time": "13.35-15.10",
        "room": "339 / пары нет"
      },
      {}
    ]
  },
  "5": {
    "2": [
      {
        "subject": "математическое моделирование в НИ(лекция)",
        "time": "9.45-11.20",
        "room": "334"
      },
      {}
    ],
    "3": [
      {
        "subject": "математическое моделирование в НИ(пр.) / инфокомуникационные системы и сети",
        "time": "11.50-13.25",
        "room": "337 / 334"
      },
      {
        "subject": "пары нет / инфокомуникационные системы и сети(пр.)",
        "time": "11.50-13.25",
        "room": "пары нет / 339"
      }
    ],
    "4": {
      "subject": "инструментальные средства информационных систем(лекция)",
      "time": "13.35-15.10",
      "room": "134"
    },
    "5": [
      {},
      {
        "subject": "инфокомуникационные системы и сети(лекция)",
        "time": "15.20-16.55",
        "room": "334"
      }
    ]
  }
}